{
	"module": "legacy_winter",
	"data": {
		"materials": [
			{
				"id": "crimsonice",
				"priceMod": 20,
				"tohit": 2,
				"bonus": 3,
				"kind": "ice",
				"noproc": true,
				"level": 5
			},
			{
				"id": "coldsteel",
				"kind": "metal",
				"priceMod": 30,
				"tohit": 3,
				"enchants": 2,
				"bonus": 7,
				"noproc": true,
				"level": 5
			},
			{
				"id": "permafrost",
				"priceMod": 80,
				"bonus": 10,
				"tohit": 3,
				"kind": "ice",
				"noproc": true,
				"level": 7
			}
		],
		"encounters": [
			{
				"id": "enc_w_lifeforce",
				"name": "siphon lifeforce",
				"desc": "The old tree has lain dormant for centuries. Now it draws life back into its branches.",
				"level": 2,
				"run": {
					"hp": 2
				},
				"effect": {
					"weary": "1~3",
					"frost": "0~1"
				}
			},
			{
				"id": "enc_w_faz_nothingthere",
				"name": "behind you",
				"desc": "Nothing there.",
				"effect": {
					"madness": "3~5",
					"unease": "4~6"
				},
				"result": {
					"w_fazbitknowledge": "1~3",
					"winteressence": 0.1
				}
			},
			{
				"id": "enc_w_faz_somethingthere",
				"name": "behind you",
				"desc": "Tangled metal skeletons hover behind you.",
				"effect": {
					"bf": "3~5",
					"unease": "4~6"
				},
				"result": {
					"w_fazbitknowledge": "1~3",
					"winteressence": 0.1
				}
			},
			{
				"id": "enc_w_faz_nothingthere2",
				"name": "false alarm",
				"desc": "A transportation alarm triggers, but it appears whatever it was meant to transport is missing.",
				"require": "w_fazbit7",
				"effect": {
					"madness": "2~3",
					"unease": "3~5"
				},
				"result": {
					"w_fazbitknowledge": "3~4",
					"frostbrass": 0.75,
					"winteressence": 0.15
				}
			},
			{
				"id": "enc_w_faz_somethingthere2",
				"name": "transport alarm",
				"desc": "A transportation alarm triggers. You step aside to dodge its cargo.",
				"require": "w_fazbit7",
				"effect": {
					"bf": "2~3",
					"unease": "3~5"
				},
				"result": {
					"w_fazbitknowledge": "3~4",
					"frostbrass": 0.75,
					"winteressence": 0.15
				}
			},
			{
				"id": "enc_w_faz_nothingthere3",
				"name": "material transportation",
				"desc": "You quickly take off a cold one from the automated transportation system. A slight adjustment to valid transportation targets is needed.",
				"effect": {
					"madness": "1~2",
					"unease": "2~4"
				},
				"result": {
					"w_dolls": 0.05,
					"winteressence": 0.2
				}
			},
			{
				"id": "enc_w_faz_somethingthere3",
				"name": "material transportation",
				"desc": "A quick infusion of energy to refresh a weakening sigil.",
				"effect": {
					"bf": "1~2",
					"unease": "2~4"
				},
				"result": {
					"w_dolls": 0.05,
					"winteressence": 0.2
				}
			},
			{
				"id": "enc_w_faz_tinyskeletons",
				"name": "tiny skeletons",
				"desc": "Tiny, malformed metal skeletons litter the floor.",
				"effect": {
					"weary": "3~5",
					"unease": "4~6"
				},
				"result": {
					"w_fazbitknowledge": "1~3",
					"winteressence": 0.1
				}
			},
			{
				"id": "enc_w_faz_tinyskeletons2",
				"name": "doll's endoskeletons",
				"desc": "Brass contraptions sit still, inanimate and imperfect.",
				"tags": "enc_site_of_learning",
				"require": "w_fazbit2",
				"effect": {
					"madness": "2~3",
					"unease": "3~5"
				},
				"result": {
					"w_fazbitknowledge": "3~4",
					"frostbrass": 0.75,
					"winteressence": 0.15,
					"crafting.rate": 0.1
				},
				"mod": {
					"anatomy.max": "0.05//20/-10"
				}
			},
			{
				"id": "enc_w_faz_tinyskeletons3",
				"name": "prepared endoskeletons",
				"desc": "Molded out of brass, they will serve as a fine conduit for animation charms.",
				"tags": "enc_site_of_learning",
				"effect": {
					"madness": "1~2",
					"unease": "2~4"
				},
				"result": {
					"w_dolls": 0.05,
					"winteressence": 0.2,
					"crafting.rate": 0.2
				},
				"mod": {
					"anatomy.max": "0.025//40/-10"
				}
			},
			{
				"id": "enc_w_faz_blobs",
				"name": "blob maker",
				"desc": "The machine throws chunks of metal into a cauldron. Round, bouncy balls emerge.",
				"effect": {
					"bf": "3~5",
					"unease": "4~6"
				},
				"result": {
					"w_fazbitknowledge": "1~3",
					"winteressence": 0.1
				}
			},
			{
				"id": "enc_w_faz_blobs2",
				"name": "automatic coater",
				"desc": "A malfunctioning machine attempts to coat the malformed skeletons to no avail.",
				"tags": "enc_site_of_learning",
				"require": "w_fazbit4",
				"effect": {
					"bf": "2~3",
					"unease": "3~5"
				},
				"result": {
					"w_fazbitknowledge": "3~4",
					"frostbrass": 0.75,
					"winteressence": 0.15
				},
				"mod": {
					"spiritlore.max": "0.025//20/-10",
					"alchemy.max": "0.05//20/-10",
					"potions.max": "0.05//20/-10"
				}
			},
			{
				"id": "enc_w_faz_blobs3",
				"name": "endo coating station",
				"desc": "You adjust the coating thickness a little, to ensure better adhesion to the base endo.",
				"tags": "enc_site_of_learning",
				"effect": {
					"bf": "1~2",
					"unease": "2~4"
				},
				"result": {
					"w_dolls": 0.05,
					"winteressence": 0.2
				},
				"mod": {
					"spiritlore.max": "0.025//40/-10",
					"alchemy.max": "0.025//40/-10",
					"potions.max": "0.025//40/-10"
				}
			},
			{
				"id": "enc_w_faz_paint",
				"name": "sudden blindness",
				"desc": "As you clear your eyes, you realize you've been meticulously covered in magical paint.",
				"effect": {
					"bf": "3~5",
					"unease": "4~6"
				},
				"result": {
					"w_fazbitknowledge": "1~3",
					"winteressence": 0.1
				}
			},
			{
				"id": "enc_w_faz_paint2",
				"name": "festive splashing",
				"desc": "A magical painter splashes paint all over, creating unquestionably festive patterns.",
				"require": "w_fazbit8",
				"effect": {
					"bf": "2~3",
					"unease": "3~5"
				},
				"result": {
					"w_fazbitknowledge": "3~4",
					"frostbrass": 0.75,
					"winteressence": 0.15
				},
				"mod": {
					"tomes.rate": "0.00005//20/-10"
				}
			},
			{
				"id": "enc_w_faz_paint3",
				"name": "painting station",
				"desc": "The automated painter cheerily paints on yet another cute face. No issues here.",
				"effect": {
					"bf": "1~2",
					"unease": "2~4"
				},
				"result": {
					"w_dolls": 0.05,
					"winteressence": 0.2
				},
				"mod": {
					"tomes.rate": "0.000025//20/-10"
				}
			},
			{
				"id": "enc_w_faz_boominglaugh",
				"name": "booming laugh",
				"desc": "Deep, metallic laugh echoes through the facility.",
				"effect": {
					"madness": "3~5",
					"unease": "4~6"
				},
				"result": {
					"w_fazbitknowledge": "1~3",
					"winteressence": 0.1
				}
			},
			{
				"id": "enc_w_faz_creepylaugh",
				"name": "creepy laugh",
				"desc": "A hysterical, repeating laugh fills the halls.",
				"effect": {
					"madness": "3~5",
					"unease": "4~6"
				},
				"result": {
					"w_fazbitknowledge": "1~3",
					"winteressence": 0.1
				}
			},
			{
				"id": "enc_w_faz_boominglaugh2",
				"name": "cheerful laugh",
				"desc": "Cheerful laughter reverberates in the empty halls.",
				"tags": "enc_site_of_learning",
				"require": "w_fazbit3",
				"effect": {
					"madness": "2~3",
					"unease": "3~5"
				},
				"result": {
					"w_fazbitknowledge": "3~4",
					"frostbrass": 0.75,
					"winteressence": 0.15
				},
				"mod": {
					"spiritlore.max": "0.025//20/-10"
				}
			},
			{
				"id": "enc_w_faz_creepylaugh2",
				"name": "children's laugh",
				"desc": "Sounds of happy children echo in the desolate halls.",
				"tags": "enc_site_of_learning",
				"require": "w_fazbit3",
				"effect": {
					"madness": "2~3",
					"unease": "3~5"
				},
				"result": {
					"w_fazbitknowledge": "3~4",
					"frostbrass": 0.75,
					"winteressence": 0.15
				},
				"mod": {
					"spiritlore.max": "0.025//20/-10"
				}
			},
			{
				"id": "enc_w_faz_boominglaugh3",
				"name": "cheerful laugh",
				"desc": "Cheerful laughter fills the halls.",
				"tags": "enc_site_of_learning",
				"effect": {
					"madness": "1~2",
					"unease": "2~4"
				},
				"result": {
					"w_dolls": 0.05,
					"winteressence": 0.2
				},
				"mod": {
					"spiritlore.max": "0.0125//40/-10"
				}
			},
			{
				"id": "enc_w_faz_creepylaugh3",
				"name": "children's laugh",
				"desc": "Sounds of happy children echo in the halls. The cold ones seem a little warmer at that.",
				"tags": "enc_site_of_learning",
				"effect": {
					"madness": "1~2",
					"unease": "2~4"
				},
				"result": {
					"w_dolls": 0.05,
					"winteressence": 0.2
				},
				"mod": {
					"spiritlore.max": "0.0125//40/-10"
				}
			},
			{
				"id": "enc_w_faz_auditlog",
				"name": "audit log",
				"desc": "The crumbling pages reveal little.",
				"effect": {
					"rage": "3~5",
					"unease": "4~6"
				},
				"result": {
					"w_fazbitknowledge": "1~3",
					"winteressence": 0.1
				}
			},
			{
				"id": "enc_w_faz_auditlog2",
				"name": "audit log",
				"desc": "A meticulously organized log of material deliveries. Alchemical reagents and certain metals feature prominently.",
				"require": "w_fazbit1",
				"effect": {
					"bf": "2~3",
					"unease": "3~5"
				},
				"result": {
					"w_fazbitknowledge": "3~4",
					"frostbrass": 0.75,
					"winteressence": 0.15
				},
				"mod": {
					"prismaticgems.max": "0.2//50/-5",
					"gems.max": "0.2//50/-5"
				}
			},
			{
				"id": "enc_w_faz_auditlog3",
				"name": "audit log",
				"desc": "You review the shipment plans, just in case. No logistical issues seem apparent.",
				"effect": {
					"bf": "1~2",
					"unease": "2~4"
				},
				"result": {
					"w_dolls": 0.05,
					"winteressence": 0.2
				},
				"mod": {
					"prismaticgems.max": "0.1//50/-10",
					"gems.max": "0.1//50/-10"
				}
			},
			{
				"id": "enc_w_faz_prototype",
				"name": "screeching skeleton",
				"desc": "A calmly sitting skeleton suddenly reaches for you, screeching.",
				"effect": {
					"madness": "3~5",
					"unease": "4~6"
				},
				"result": {
					"w_fazbitknowledge": "1~3",
					"winteressence": 0.1
				}
			},
			{
				"id": "enc_w_faz_prototype2",
				"name": "animated doll",
				"desc": "It's clear that the enchantments applied to this were meant to follow the animation spellchart, but age has taken its toll.",
				"tags": "enc_site_of_learning",
				"require": "w_fazbit6",
				"effect": {
					"madness": "2~3",
					"unease": "3~5"
				},
				"result": {
					"w_fazbitknowledge": "3~4",
					"frostbrass": 0.75,
					"winteressence": 0.15
				},
				"mod": {
					"puppetry.max": "0.05//20/-10",
					"machinacreation.max": "0.05//20/-10"
				}
			},
			{
				"id": "enc_w_faz_prototype3",
				"name": "prototype unit",
				"desc": "The first doll made after the repairs, it now sits as a standard for all future production.",
				"tags": "enc_site_of_learning",
				"effect": {
					"madness": "1~2",
					"unease": "2~4"
				},
				"result": {
					"w_dolls": 0.05,
					"winteressence": 0.2
				},
				"mod": {
					"puppetry.max": "0.025//40/-10",
					"machinacreation.max": "0.025//40/-10"
				}
			},
			{
				"id": "enc_w_faz_stockpile",
				"name": "materials stockpile",
				"desc": "You happen upon a store of valuable materials.",
				"effect": {
					"unease": "5~7"
				},
				"result": {
					"w_fazbitknowledge": "1~3",
					"winteressence": 0.1
				},
				"loot": {
					"gems": "2~5",
					"gold": "100~250"
				}
			},
			{
				"id": "enc_w_faz_stockpile2",
				"name": "materials stockpile",
				"desc": "With the ledger and logs in hand, finding the most valuable of materials proves trivial.",
				"require": "w_fazbit5",
				"effect": {
					"unease": "4~6"
				},
				"loot": {
					"w_fazbitknowledge": "1~8",
					"frostbrass": 2.25,
					"winteressence": 0.15,
					"gems": "5~7",
					"gold": "200~400"
				}
			},
			{
				"id": "enc_w_faz_stockpile3",
				"name": "materials stockpile",
				"desc": "Review the material stockpiles for any excesses to apropriate.",
				"effect": {
					"unease": "3~5"
				},
				"loot": {
					"winteressence": 0.2,
					"gems": "6~8",
					"gold": "300~500"
				}
			},
			{
				"id": "enc_w_faz_scrapper",
				"name": "metal twister",
				"desc": "A machine repeatedly tears apart then welds together what appears to be unrecognizable lumps of metal.",
				"effect": {
					"bf": "3~5",
					"unease": "4~6"
				},
				"result": {
					"w_fazbitknowledge": "1~3",
					"winteressence": 0.1
				}
			},
			{
				"id": "enc_w_faz_scrapper2",
				"name": "adjuster",
				"desc": "Once meant to make minute adjustments to better suit individual recipients, it has been reduced to an eternity of useless work.",
				"require": "w_fazbit9",
				"effect": {
					"madness": "2~3",
					"unease": "3~5"
				},
				"result": {
					"w_fazbitknowledge": "2~4",
					"winteressence": 0.15
				}
			},
			{
				"id": "enc_w_faz_scrapper3",
				"name": "customization station",
				"desc": "While there are no missives for it to process, it is still used to put a unique touch on every doll you produce.",
				"effect": {
					"madness": "1~2",
					"unease": "2~4"
				},
				"result": {
					"w_dolls": 0.05,
					"winteressence": 0.2
				}
			},
			{
				"id": "enc_icestudy",
				"name": "ebin's notes",
				"desc": "A detailed study of the properties of ice.",
				"tags": "enc_site_of_learning",
				"effect": {
					"bf": "1~3",
					"icelore.exp": 1
				},
				"result": {
					"winteressence": 0.1,
					"evt_w_chillforge": "10%"
				},
				"mod": {
					"icelore.max": "0.1//20/-10"
				}
			},
			{
				"id": "enc_winterstudy",
				"name": "tome of winters past",
				"desc": "The year's coldest season is also known for its dark legends.",
				"effect": {
					"bf": "1~2",
					"rage": "0~3",
					"winterlore.rate": 0.04
				},
				"loot": {
					"winteressence": 0.1,
					"codices": "80%",
					"evt_w_chillforge": "15%"
				}
			},
			{
				"id": "frozenbookcase",
				"name": "frozen bookcase",
				"desc": "The cracked pages of the books are fused with ice",
				"effect": {
					"madness": "1~2",
					"fire": -0.1,
					"weary": "1~3",
					"frost": "0~2",
					"icelore.exp": 0.5
				},
				"loot": {
					"winteressence": 0.1,
					"codices": "2~5",
					"tomes": "20%"
				}
			},
			{
				"id": "enc_w_drawscheme",
				"name": "drawing mystic schemes",
				"desc": "the patterns must be laid precisely to direct the magic weaves.",
				"level": 2,
				"effect": {
					"madness": "1~2",
					"bf": "1~3",
					"frost": "0~1"
				},
				"result": {
					"arcana": -1
				}
			},
			{
				"id": "enc_w_placegems",
				"name": "placing gems",
				"desc": "Magical gems will focus the power of the tree of rites.",
				"level": 2,
				"effect": {
					"unease": "0~2",
					"frost": "0~1"
				},
				"result": {
					"gems": -5
				}
			},
			{
				"id": "enc_w_setfocus",
				"name": "connecting focal points",
				"desc": "Snow golems will serve well for this purpose.",
				"level": 2,
				"effect": {
					"weary": "0~2",
					"rage": "0~1",
					"frost": "0~2"
				},
				"result": {
					"ice": -3
				}
			},
			{
				"id": "enc_w_attune",
				"name": "attuning to local magic",
				"desc": "Attuning to magic of the tree, before the rite proceeds.",
				"tags": "enc_site_of_learning",
				"level": 2,
				"effect": {
					"madness": "1~2",
					"frost": "0.5~2"
				},
				"result": {
					"winteressence": 0.1
				},
				"mod": {
					"icelore.max": "0.15//20/-10"
				}
			},
			{
				"id": "enc_w_kidsplaying",
				"name": "playing in the snow",
				"desc": "The children seem to enjoy the snowballs you conjure from the air.",
				"level": 2,
				"effect": {
					"weary": "1~2",
					"rage": "-1~0",
					"bf": "-1~-2",
					"icelore.exp": 3
				},
				"result": {
					"winteressence": 0.1,
					"livingsnow": "1~3"
				}
			},
			{
				"id": "enc_w_windbarrier",
				"name": "windbarrier",
				"desc": "Building a barrier against the harsh winds",
				"effect": {
					"weary": "1~2",
					"airlore.exp": 2
				},
				"level": 2,
				"result": {
					"winteressence": 0.1
				}
			},
			{
				"id": "enc_w_conjuring",
				"name": "conjuring",
				"desc": "Conjuring a fire elemental at the magic circle. That should stave away the cold!",
				"effect": {
					"mana": "0.5~1",
					"firelore.exp": 3,
					"conjuration.exp": 5,
					"madness": "2~3"
				},
				"level": 2,
				"mod": {
					"frost.rate": "-0.1//100/-5"
				}
			},
			{
				"id": "enc_w_candles",
				"name": "crafting candles",
				"desc": "Crafting everburning candles",
				"effect": {
					"unease": "1~2",
					"crafting.exp": 3
				},
				"level": 2,
				"result": {
					"winteressence": 0.1
				}
			},
			{
				"id": "enc_w_legends",
				"name": "stories",
				"desc": "Listening to elders recite their winter legends.",
				"effect": {
					"bf": "1~2",
					"unease": "0~2",
					"history.exp": 3
				},
				"level": 2,
				"result": {
					"winteressence": 0.1,
					"evt_w_legend": "10%"
				}
			},
			{
				"id": "enc_w_decorations",
				"name": "old decorations",
				"desc": "Brass trinkets and baubles adorn the village.",
				"effect": {
					"bf": "1~2",
					"madness": "0~2"
				},
				"level": 2,
				"result": {
					"winteressence": 0.1
				}
			},
			{
				"id": "enc_w_coldsnap",
				"name": "cold snap",
				"desc": "A sudden burst of icy winds chills you to the bone.",
				"effect": {
					"weary": "-1~3",
					"unease": "-1~3",
					"frost": "1~2",
					"icelore.exp": 1.5,
					"hp": "-2~-4",
					"fire": "-0.2~-0.3"
				}
			},
			{
				"id": "enc_emberstone",
				"name": "emberstone",
				"desc": "Some latent heat springs here from the ground.",
				"effect": {
					"madness": "1~2",
					"hp": "-1~-2",
					"frost": "-2~-3",
					"fire": "0.2~0.3"
				}
			},
			{
				"id": "drippingwater",
				"name": "water source",
				"desc": "Some of the ice here is melting. How it fights the cold is a mystery.",
				"tags": "enc_site_of_learning",
				"effect": {
					"madness": "1~2",
					"frost": "-1~0",
					"water": "0.2~0.3"
				},
				"mod": {
					"icelore.max": "0.1//20/-10"
				}
			},
			{
				"id": "frozenloam",
				"name": "frozen herbs",
				"desc": "A few herbs still survive in the frozen loam.",
				"level": 3,
				"effect": {
					"rage": "1~3",
					"weary": "1~4"
				},
				"loot": {
					"winteressence": 0.1,
					"herbs": "2~5",
					"snowdrop": "20%"
				}
			},
			{
				"id": "w_crystalsocket",
				"name": "sparkling crystals",
				"desc": "A vein of crystals embedded in the cave wall, sparkling in the dark.",
				"level": 3,
				"effect": {
					"rage": "1~3",
					"weary": "1~4",
					"earthlore.exp": 3
				},
				"loot": {
					"gems": "1~3",
					"watergem": "0~1",
					"firegem": "20%"
				}
			},
			{
				"id": "icegrave",
				"name": "ice grave",
				"desc": "A traveller here was frozen alive. The body may still be of use.",
				"tags": "enc_site_of_learning",
				"effect": {
					"madness": "2~3",
					"weary": "1~4",
					"frost": "1~2"
				},
				"loot": {
					"winteressence": 0.1,
					"bodies": { "%": "8%", "value": "1~3", "skipLocked": true },
					"bones": { "%": "40%", "value": "0~2", "skipLocked": true },
					"bloodgem": "5%"
				},
				"mod": {
					"earthlore.max": "0.1//20/-10"
				}
			},
			{
				"id": "icesculpture",
				"name": "ice sculpture",
				"desc": "Humanoid figure formed from ice and snow. The right enchantment will give it life.",
				"tags": "enc_site_of_learning",
				"level": 2,
				"effect": {
					"weary": "1~4",
					"ice": -0.4
				},
				"loot": {
					"winteressence": 0.1,
					"snowman": 1
				},
				"mod": {
					"icelore.max": "0.1//20/-10"
				}
			},
			{
				"id": "icefairy",
				"name": "ice fairy",
				"desc": "A flickering of crystalline wings can be seen in the distance. Approaching it would be unwise.",
				"tags": "enc_site_of_learning",
				"level": 2,
				"effect": {
					"weary": "1~4",
					"ice": 0.4
				},
				"result": {
					"winteressence": 0.2
				},
				"mod": {
					"icelore.max": "0.1//10/-10"
				}
			}
		],
		"rares": [
			{
				"id": "ice_blade",
				"sym": "❄️",
				"name": "glacial blade",
				"unique": true,
				"type": "weapon",
				"tags": "t_martial,t_slash,t_sword",
				"damage": "8~10",
				"attack": {
					"kind": "slash",
					"damage": "i.damage||0",
					"potencies": ["sworddmg", "slashdmg", "physdmg", "icedmg"]
				},
				"cost": 20,
				"level": 5
			},
			{
				"id": "iceorb",
				"sym": "❄️",
				"name": "orb of winters",
				"unique": true,
				"tags": "t_event,t_orb,t_artifact",
				"hands": 2,
				"desc": "A snowglobe with magical powers. It reminds you of colder days.",
				"level": 10,
				"material": "mat_caster_diamond",
				"type": "weapon",
				"enchants": 1,
				"sell": {
					"gold": 100
				},
				"attack": {
					"name": "blizzard",
					"damage": "3~6",
					"kind": "ice",
					"tohit": 2,
					"targets": "enemies",
					"maxTargets": 999,
					"potencies": ["spelldmg", "icedmg"],
					"dot": {
						"duration": 5,
						"id": "frostbite",
						"kind": "ice",
						"damage": "3~4",
						"mod": {
							"self.speed": -3
						},
						"potencies": ["spelldmg", "icedmg"]
					}
				},
				"alter": {
					"mod": {
						"ice.rate": "20%",
						"ice.max": "20%",
						"icedmg": 50,
						"icelore.rate": "0.15+30%",
						"water.rate": "10%",
						"water.max": "10%",
						"waterlore.rate": "0.15+30%",
						"fire.rate": "-80%",
						"fire.max": "-80%"
					}
				}
			},
			{
				"id": "coldnecklace",
				"name": "coldsteel necklace",
				"desc": "Wearing it makes your thoughts cold and your focus sharp.",
				"tags":"t_accessory, t_necklace",
				"unique": true,
				"level": 1,
				"armor": 3,
				"type": "armor",
				"kind": "necklace",
				"slot": "neck",
				"enchants": 3,
				"alter": {
					"mod": {
						"focus.result.runner.skillprogress": "100%",
						"stress.rate": -0.3
					}
				}
			}
		],
		"potencies": [
			{
				"id": "icedmg",
				"name": "ice damage",
				"val": 100,
				"damage": "Math.max((i.value/100)||0,0)"
			}
		],
		"hall": {
			"data": {
				"upgrades_unused": [
					{
						"id": "fazbit_restoration",
						"name": "fazbit's workshop restoration project",
						"sym": "🏰❄️",
						"tags": "hall",
						"desc": "This place must have once been a source of great joy to people all over the realm. It would be a tremendous accomplishment to repair it... when the season permits, that is.",
						"require": "g.lore>999",
						"need": "g.lore>999",
						"needtext": "Can only be done in winter",
						"max": 1,
						"result": {
							"fame": 10
						}
					},
					{
						"id": "fazbit_restoration2",
						"name": "fazbit's sealed winter workshop",
						"sym": "🏰❄️",
						"tags": "hall",
						"desc": "It slumbers, waiting for the next time it's needed.",
						"require": "g.lore>999",
						"need": "g.lore>999",
						"needtext": "Can only be done in winter",
						"max": 1,
						"mod": {
							"puppetry.buy.sp": -1,
							"machinacreation.buy.sp": -1,
							"automatasculpting.buy.sp": -2
						}
					}
				],
				"upgrades": [
					{
						"id": "fazbitjolliness",
						"name": "fazbit's jolliness",
						"sym": "🏰❄️",
						"require": "g.fazbithearth>0",
						"desc": "Even in the depths of frost and cold, warmth endures.",
						"max": 1,
						"cost": {
							"research": 100
						},
						"mod": {
							"firelore.max": 5
						}
					}
				]
			}
		}
	}
}
