[
	{
		"id": "crafting",
		"need": "workspace",
		"desc": "An absolutely vital skill for a wizard to craft arcane items.",
		"buy": {
			"research": 20
		},
		"run": {
			"stamina": 0.3
		},
		"result": {
			"sp": 0.1
		},
		"mod": {
			"research.max": 1
		}
	},
	{
		"id": "lore",
		"name": "mage lore",
		"school": "arcane",
		"tags": "t_school",
		"verb": "reading lore",
		"desc": "Nothing is more important to a wizard than the depth of their lore.",
		"require": "g.apprentice>0",
		"buy": {
			"research": 20
		},
		"run": {
			"stamina": 0.2
		},
		"result": {
			"arcana": 1
		},
		"mod": {
			"research.max": 5,
			"arcana.max": 1
		}
	},
	{
		"id": "spellcraft",
		"school": "arcane",
		"verb": "studying spells",
		"desc": "The ability to build greater spells from lesser is what separates a practitioner from a master.",
		"require": "g.tier2>0&&g.lore>=15",
		"level": 10,
		"buy": {
			"sp": 5
		},
		"run": {
			"stamina": 0.2,
			"research": 5
		},
		"mod": {
			"research.max": 5,
			"scraft": 1,
			"userSpells.max": 0.7
		}
	},
	{
		"id": "concentrate",
		"name": "concentration",
		"verb": "concentrating",
		"desc": "Keep your mind and nerves sharp under pressure.",
		"level": 5,
		"require": "(g.mustylibrary+g.loc_spring)>=2",
		"run": {
			"stamina": 0.2
		},
		"mod": {
			"stress.max": 1
		}
	},
	{
		"id": "composure",
		"desc": "Remain unfazed under strain.",
		"level": 5,
		"require": "g.concentrate>=4",
		"run": {
			"stamina": 0.3
		},
		"mod": {
			"stress.rate": -0.1
		}
	},
	{
		"id": "trickery",
		"verb": "scheming",
		"flavor": "Sufficiently advanced sleight of hand is indistinguishable from magic.",
		"level": 5,
		"school": "arcane",
		"require": "g.prestidigitation>=10",
		"buy": {
			"sp": 2
		},
		"run": {
			"stamina": 0.2,
			"gold": 1
		},
		"result": {
			"sp": 0.15,
			"arcana": 0.1
		},
		"mod": {
			"luck": 0.2
		}
	},
	{
		"id": "conjuration",
		"school": "arcane",
		"verb": "conjuring",
		"desc": "",
		"require": "g.tier0>0&&g.lore>=7&&g.divination>=3",
		"run": {
			"stamina": 0.2,
			"spirit": 0.2
		},
		"result": {
			"arcana": 0.2,
			"sp": 0.05
		},
		"mod": {
			"research.max": 1
		},
		"flavor": "Who knows where things come from? They just appear."
	},
	{
		"id": "runelore",
		"alias": "runes",
		"name": "runic lore",
		"school": "arcane",
		"verb": "translating",
		"desc": "Study ancient Dhrunic runes.",
		"require": "g.tier2>0&&g.dwarfbook>0",
		"level": 10,
		"buy": {
			"sp": 3
		},
		"run": {
			"stamina": 0.2,
			"research": 1
		},
		"result": {
			"arcana": 0.1,
			"sp": 0.05
		},
		"mod": {
			"research.max": "0.3%",
			"lore.max": 0.2,
			"languages.max": 0.2
		},
		"flavor": ""
	},
	{
		"id": "animals",
		"name": "animal handling",
		"need": "t_pets",
		"buy": {
			"research": 20
		},
		"run": {
			"stamina": 0.3
		},
		"result": {
			"sp": 0.05
		},
		"mod": {
			"research.max": 1,
			"steed.mod.dist": 1
		},
		"flavor": "Tend the rabbits. Or horses."
	},
	{
		"id": "magicbeasts",
		"name": "magic beasts",
		"require": "g.animals>=7&&g.naturelore>=5",
		"desc": "",
		"level": 5,
		"run": {
			"stamina": 0.5
		},
		"effect": {
			"naturelore.exp": 1
		},
		"result": {
			"sp": 0.05
		},
		"mod": {
			"research.max": 5,
			"animals.rate": 0.05,
			"allies.max": 0.25
		}
	},
	{
		"id": "charms",
		"require": "g.enchanting>=5&&g.lore>=10",
		"level": 10,
		"run": {
			"stamina": 0.5
		},
		"result": {
			"sp": 0.05
		},
		"mod": {
			"research.max": 1,
			"minions.max": "10%",
			"allies.max": 1
		}
	},
	{
		"id": "herbalism",
		"school": "nature",
		"require": "lore",
		"need": "plantsource",
		"buy": {
			"research": 25
		},
		"run": {
			"stamina": 0.25
		},
		"result": {
			"sp": 0.01
		},
		"mod": {
			"research.max": 2,
			"herbs.max": 2
		}
	},
	{
		"id": "weaving",
		"need": "weavesource",
		"level": 5,
		"run": {
			"stamina": 0.4
		},
		"result": {
			"sp": 0.05
		},
		"mod": {
			"crafting.max": 0.1,
			"crafting.rate": 0.05
		}
	},
	{
		"id": "languages",
		"school": "lore",
		"require": "lore",
		"desc": "Books and scrolls are written in many obscure languages. Learn as many as possible.",
		"verb": "linguisticizing",
		"buy": {
			"research": 10
		},
		"run": {
			"stamina": 0.2
		},
		"result": {
			"sp": 0.05
		},
		"mod": {
			"research.rate": 0.05,
			"research.max": 5,
			"lore.rate": 0.1
		}
	},
	{
		"id": "history",
		"name": "world lore",
		"require": "g.languages>=6",
		"desc": "The knowledge of what has come before reveals what is yet possible.",
		"verb": "historicizing",
		"level": 5,
		"run": {
			"stamina": 0.2
		},
		"effect": {
			"research": 0.5
		},
		"result": {
			"sp": 0.05
		},
		"mod": {
			"research.max": 15,
			"arcana.max": 0.1,
			"s_travel.max": 0.1,
			"s_travel.rate": 0.05,
			"languages.rate": 0.05
		}
	},
	{
		"id": "anatomy",
		"require": "g.neophyte>0&&g.lore>=6",
		"school": ["nature", "shadow", "light"],
		"desc": "The study of physical form.",
		"run": {
			"stamina": 0.4
		},
		"result": {
			"sp": 0.05
		},
		"mod": {
			"research.max": 1,
			"hp.max": 1,
			"hp.rate": 0.1,
			"t_rest.effect.hp": 0.4
		}
	},
	{
		"id": "vivification",
		"require": "g.tier4>0&&g.anatomy>0&&g.spiritlore>=5",
		"desc": "",
		"level": 5,
		"run": {
			"stamina": 1
		},
		"result": {
			"sp": 0.01
		},
		"mod": {
			"stamina.rate": 0.1,
			"vigor.rate": 0.01,
			"anatomy.rate": 0.05
		}
	},
	{
		"id": "summoning",
		"require": "g.tier1>0&&g.conjuration>=5",
		"school": "arcane",
		"level": 5,
		"buy": {
			"sp": 2
		},
		"run": {
			"stamina": 0.5
		},
		"mod": {
			"research.max": 5,
			"allies.max": 1,
			"minions.max": 0.5
		}
	},
	{
		"id": "bloodlore",
		"name": "blood magic",
		"school": "blood",
		"require": "g.t_bloodclass>0",
		"level": 10,
		"buy": {
			"sp": 3
		},
		"run": {
			"stamina": 1,
			"hp": 1
		},
		"mod": {
			"anatomy.rate": 0.05,
			"hp.max": "5%",
			"hp.rate": 0.1
		}
	},
	{
		"id": "divination",
		"desc": "The art of foretelling.",
		"require": "g.spiritlore>=6||g.mysticism>=5",
		"need": "spiritsource",
		"school": "spirit",
		"run": {
			"stamina": 0.2
		},
		"effect": {
			"arcana": 0.001
		},
		"result": {
			"sp": 0.05
		},
		"mod": {
			"research.max": 1
		}
	},
	{
		"id": "lightlore",
		"tags": "t_school",
		"name": "lumenology",
		"school": "light",
		"desc": "Study of pure light.",
		"need": "lightsource",
		"run": {
			"stamina": 0.2
		},
		"mod": {
			"research.max": 5,
			"light": {
				"max": 1,
				"rate": 0.01
			}
		},
		"flavor": "The light fantastic."
	},
	{
		"id": "shadowlore",
		"name": "umbramancy",
		"tags": "t_school",
		"require": "g.evilamt>=10||g.spiritlore>=6",
		"school": "shadow",
		"need": "shadowsource",
		"run": {
			"stamina": 0.2
		},
		"mod": {
			"research.max": 5,
			"shadow.max": 1,
			"shadow.rate": 0.01
		}
	},
	{
		"id": "spiritlore",
		"tags": "t_school",
		"name": "spirit communion",
		"desc": "Seeing the unseen.",
		"require": "g.lore>=6",
		"need": "spiritsource",
		"school": "spirit",
		"run": {
			"stamina": 0.2
		},
		"mod": {
			"research.max": 5,
			"spirit": {
				"max": 1,
				"rate": 0.01
			}
		}
	},
	{
		"id": "firelore",
		"tags": "t_school,elemental",
		"name": "pyromancy",
		"desc": "The investigation of fire.",
		"need": "firesource",
		"buy": {
			"sp": 1
		},
		"run": {
			"stamina": 0.2,
			"hp": 0.2
		},
		"mod": {
			"research.max": 5,
			"fire": {
				"max": 1,
				"rate": 0.01
			}
		},
		"flavor": "Dry is good and wind is better."
	},
	{
		"id": "earthlore",
		"name": "geomancy",
		"tags": "t_school,elemental",
		"need": "earthsource",
		"buy": {
			"sp": 1
		},
		"run": {
			"stamina": 0.3
		},
		"mod": {
			"research.max": 5,
			"earth": {
				"max": 1,
				"rate": 0.01
			}
		}
	},
	{
		"id": "waterlore",
		"name": "aquamancy",
		"desc": "The study of water.",
		"verb": "studying water",
		"tags": "elemental,t_school",
		"buy": {
			"sp": 1
		},
		"need": "watersource",
		"run": {
			"stamina": 0.2
		},
		"mod": {
			"research.max": 5,
			"water": {
				"max": 1,
				"rate": 0.01
			}
		}
	},
	{
		"id": "airlore",
		"name": "aeromancy",
		"desc": "The study of air.",
		"verb": "studying air",
		"tags": "elemental,t_school",
		"buy": {
			"sp": 1
		},
		"need": "airsource",
		"run": {
			"stamina": 0.2
		},
		"mod": {
			"research.max": 5,
			"air": {
				"max": 1,
				"rate": 0.01
			}
		}
	},
	{
		"id": "naturelore",
		"name": "nature studies",
		"verb": "observing nature",
		"tags": "t_school",
		"require": "g.herbalism>=3",
		"run": {
			"stamina": 0.2
		},
		"mod": {
			"research.max": 5,
			"nature": {
				"max": 1,
				"rate": 0.01
			}
		}
	},
	{
		"id": "wizlore",
		"name": "wizard Lore",
		"require": "(g.t_knowledgeclass+g.tier5)>=2",
		"school": "arcane",
		"desc": "Many ask 'how?' Few think to ask, 'why?'",
		"level": 15,
		"run": {
			"stamina": 1,
			"research": 50,
			"arcana": 0.5
		},
		"mod": {
			"lore.rate": 0.1,
			"mana.rate": "3%",
			"research.rate": "2%",
			"arcana.rate": "1%"
		}
	},
	{
		"id": "firelore2",
		"name": "fire mastery",
		"desc": "A mastery of fire.",
		"level": 15,
		"require": "g.firelore>=10&&g.t_fireclass>0",
		"buy": {
			"arcana": 1,
			"sp": 5,
			"tomes": 30,
			"runestones": 10
		},
		"run": {
			"stamina": 1,
			"fire": 0.5
		},
		"mod": {
			"firerune.max": 2,
			"fire.max": 1,
			"fire.rate": "1%",
			"firedmg": 3
		},
		"flavor": "Dry is good and wind is better."
	},
	{
		"id": "waterlore2",
		"name": "water mastery",
		"desc": "A mastery of water.",
		"require": "g.waterlore>=10&&g.t_waterclass>0",
		"level": 15,
		"buy": {
			"arcana": 1,
			"sp": 5,
			"tomes": 30,
			"runestones": 10
		},
		"run": {
			"stamina": 1,
			"water": 0.5
		},
		"mod": {
			"waterrune.max": 2,
			"water.max": 1,
			"water.rate": "1%",
			"waterdmg": 3
		}
	},
	{
		"id": "airlore2",
		"name": "air mastery",
		"desc": "A mastery of air.",
		"require": "g.airlore>=10&&g.t_airclass>0",
		"level": 15,
		"buy": {
			"arcana": 1,
			"sp": 5,
			"tomes": 30,
			"runestones": 10
		},
		"run": {
			"stamina": 1,
			"air": 0.5
		},
		"mod": {
			"airrune.max": 2,
			"air.max": 1,
			"air.rate": "1%",
			"airdmg": 3
		}
	},
	{
		"id": "hammerlore",
		"name": "hammer proficiency",
		"desc": "The anvil or the skull, it makes no difference.",
		"require": "g.t_hammerclass>0",
		"need": "armssource",
		"level": 5,
		"buy": {
			"sp": 2
		},
		"run": {
			"stamina": 1.5
		},
		"result": {
			"sp": 0.05
		},
		"mod": {
			"hammerdmg": 3
		}
	},
	{
		"id": "geosculpting",
		"desc": "Bend the earth to your will.",
		"require": "g.t_earthclass>0",
		"level": 5,
		"buy": {
			"sp": 2
		},
		"run": {
			"stamina": 0.5
		},
		"result": {
			"sp": 0.05
		},
		"mod": {
			"player.defense": 0.3,
			"player.dodge": -0.2,
			"earthspire.mod.space.max": 1
		}
	},
	{
		"id": "earthlore2",
		"name": "earth mastery",
		"desc": "A mastery of earth.",
		"require": "g.earthlore>=10&&g.t_earthclass>0",
		"level": 15,
		"buy": {
			"arcana": 1,
			"sp": 5,
			"tomes": 30,
			"runestones": 10
		},
		"run": {
			"stamina": 1,
			"earth": 0.5
		},
		"mod": {
			"earthrune.max": 2,
			"earth.max": 1,
			"earth.rate": "1%",
			"earthdmg": 3
		}
	},
	{
		"id": "lightlore2",
		"name": "light mastery",
		"desc": "A mastery of light.",
		"require": "g.lightlore>=10&&g.t_lightclass>0",
		"level": 15,
		"buy": {
			"arcana": 1,
			"sp": 5,
			"tomes": 30,
			"runestones": 10
		},
		"run": {
			"stamina": 1,
			"light": 0.5
		},
		"mod": {
			"light.max": 1,
			"light.rate": "1%",
			"lightdmg": 3
		}
	},
	{
		"id": "spiritlore2",
		"name": "spirit mastery",
		"desc": "A mastery of spirit.",
		"require": "g.spiritlore>=10&&g.t_spiritclass>0",
		"level": 15,
		"buy": {
			"arcana": 1,
			"sp": 5,
			"tomes": 30,
			"souls": 10
		},
		"run": {
			"stamina": 1,
			"spirit": 0.5
		},
		"mod": {
			"spirit.max": 1,
			"spirit.rate": "1%",
			"spiritdmg": 3
		}
	},
	{
		"id": "manalore2",
		"name": "arcane mastery",
		"desc": "A mastery of pure magic.",
		"require": "g.lore>=20&&g.t_knowledgeclass>0",
		"level": 15,
		"buy": {
			"arcana": 1,
			"sp": 5,
			"tomes": 30,
			"runestones": 10
		},
		"run": {
			"stamina": 1,
			"mana": 0.5
		},
		"mod": {
			"mana.max": 1,
			"mana.rate": "1%",
			"manadmg": 3
		}
	},
	{
		"id": "naturelore2",
		"name": "nature mastery",
		"desc": "A mastery of nature.",
		"require": "g.naturelore>=10&&g.t_natureclass>0",
		"level": 15,
		"buy": {
			"arcana": 1,
			"sp": 5,
			"tomes": 30,
			"runestones": 10
		},
		"run": {
			"stamina": 1,
			"nature": 0.5
		},
		"mod": {
			"nature.max": 1,
			"nature.rate": "1%",
			"naturedmg": 3
		}
	},
	{
		"id": "potions",
		"require": "g.crafting>=3&&g.alchemy>=2",
		"need": ["workspace", "potsource"],
		"level": 5,
		"run": {
			"stamina": 0.3
		},
		"result": {
			"sp": 0.05
		},
		"mod": {
			"research.max": 5
		}
	},
	{
		"id": "enchanting",
		"require": "g.tier1>0&&g.lore>=11",
		"desc": "Imbue mundane gems and items with magical properties.",
		"level": 10,
		"run": {
			"stamina": 0.4,
			"research": 1
		},
		"buy": {
			"research": 300
		},
		"need": "((g.managem>=1)+(g.firegem>=1)+(g.watergem>=1)+(g.naturegem>=1)+(g.earthgem>=1)+(g.airgem>=1)+(g.shadowgem>=1)+(g.lightgem>=1)+(g.spiritgem>=1))>=3",
		"needtext": "Must own at least 3 types of magical gems. Perhaps they can be found while exploring some nearby locales.",
		"mod": {
			"enchantslots.max": 1
		},
		"result": {
			"sp": 0.05,
			"arcana": 0.1
		}
	},
	{
		"id": "alchemy",
		"school": "elemental",
		"require": "g.tier0>0&&g.herbalism>=4",
		"run": {
			"stamina": 0.4
		},
		"result": {
			"sp": 0.1
		},
		"mod": {
			"research.max": 5,
			"gold.rate": 0.01
		}
	},
	{
		"id": "astronomy",
		"need": "starsource",
		"run": {
			"stamina": 0.2
		},
		"result": {
			"sp": 0.04
		},
		"mod": {
			"research.max": 5
		}
	},
	{
		"id": "mysticism",
		"require": "g.lore>=8",
		"desc": "The ability to sense the flow and flux of arcane energies.",
		"buy": {
			"arcana": 1
		},
		"run": {
			"stamina": 0.5
		},
		"mod": {
			"mana.max": 0.5,
			"arcana.rate": 0.001,
			"prismatic.rate": 0.02
		}
	},
	{
		"id": "s_travel",
		"name": "travel",
		"level": 5,
		"require": "(g.languages+g.history)>=12",
		"desc": "Travel offers a growing wizard new avenues of research and new sources of research.",
		"run": {
			"stamina": 1
		},
		"mod": {
			"dist": "5%"
		}
	},
	{
		"id": "planeslore",
		"name": "planes lore",
		"desc": "Farther than the stars and closer than your fingertips.",
		"flavor": "There is no safe distance.",
		"require": "g.astronomy>=5&&g.tier1>0",
		"level": 5,
		"buy": {
			"sp": 2,
			"arcana": 5
		},
		"run": {
			"stamina": 0.3,
			"research": 1,
			"mana": 0.1
		},
		"mod": {
			"arcana.max": 1,
			"research.max": 5
		}
	},
	{
		"id": "astrallore",
		"name": "astral communion",
		"require": "g.planeslore>=13&&g.tier5>0",
		"desc": "Anyone can see the stars. Few can read them.",
		"level": 15,
		"buy": {
			"sp": 10,
			"arcana": 50
		},
		"run": {
			"stamina": 1,
			"research": 10,
			"arcana": 0.5
		},
		"mod": {
			"sindel.rate": 0.0001,
			"sindel.max": 0.4
		}
	},
	{
		"id": "voidlore",
		"name": "abyss gazing",
		"require": "g.planeslore>=10&&g.tier5>0",
		"desc": "The absence of all things.",
		"level": 15,
		"buy": {
			"sp": 5,
			"arcana": 5
		},
		"run": {
			"stamina": 1,
			"research": 5,
			"arcana": 0.1
		},
		"mod": {
			"space.max": "2%",
			"dist": "1%",
			"research.max": 1
		},
		"flavor": "What could go wrong?"
	},
	{
		"id": "chronomancy",
		"desc": "There must be a way...",
		"flavor": "Too much to do, so little time.",
		"level": 15,
		"tags": "t_school",
		"require": "tier3",
		"need": "timesource",
		"max": 1,
		"buy": {
			"sp": 2
		},
		"run": {
			"stamina": 0.7,
			"research": 1,
			"mana": 1
		},
		"mod": {
			"tempus.max": 1,
			"tempus.rate": 0.001
		}
	},
	{
		"id": "scrying",
		"require": "g.divination>=6",
		"level": 5,
		"run": {
			"stamina": 0.25
		},
		"effect": {
			"arcana": 0.001
		},
		"mod": {
			"research.max": 1,
			"arcana.max": 0.2
		}
	},
	{
		"id": "heallore",
		"name": "rejuvenation",
		"require": "g.t_healspell>=200&&g.tier1>0",
		"school": ["light", "water", "nature"],
		"desc": "A revelation of life magic.",
		"level": 5,
		"buy": {
			"sp": 3
		},
		"run": {
			"stamina": 0.5
		},
		"result": {
			"sp": 0.05
		},
		"mod": {
			"spellheal": 2
		}
	},
	{
		"id": "chaoslore",
		"name": "imposition",
		"require": "g.tier4>0&&g.trickery>=12",
		"school": "chaos",
		"level": 15,
		"desc": "Manipulate the underlying principles of reality with varying degrees of subtlety.",
		"buy": {
			"sp": 5
		},
		"run": {
			"stamina": 1,
			"mana": 1
		},
		"mod": {
			"luck": 1,
			"chaos.max": 1,
			"chaos.rate": "0.01+1%",
			"arcana.rate": 0.05,
			"lore.rate": 0.05,
			"research.rate": "1%"
		},
		"flavor": "Wizards do parlor tricks. I throttle the heavens."
	}
]
